HW2Q2
…
Rows: 24397 Columns: 26
── Column specification ────────────────────────────────────────────────────────
Delimiter: ","
chr (14): ip_patient_id, ip_enc_id, diagnosis_date, procedure_date, icd_code...
dbl (12): X, procedure_code, age, elix_vw_score, preventive_antibiotics, ant...

ℹ Use `spec()` to retrieve the full column specification for this data.
ℹ Specify the column types or set `show_col_types = FALSE` to quiet this message.

cols <- tibble(Index = seq_along(names(main)), Name = names(main))

#kable(cols, format = "latex", booktabs = TRUE)
cols

# A tibble: 26 × 2
   Index Name                 
   <int> <chr>                
 1     1 X                    
 2     2 ip_patient_id        
 3     3 ip_enc_id            
 4     4 diagnosis_date       
 5     5 procedure_date       
 6     6 icd_code             
 7     7 procedure_code       
 8     8 Category             
 9     9 icd_description      
10    10 procedure_description
# ℹ 16 more rows
…
